IE 360 HW 1
…
Reading the data for further implementations.

money_supply <- read_excel('C:/Users/OZAN/Documents/360 hw 1 datas/money supply.xlsx')
foreign_currency <- read_excel('C:/Users/OZAN/Documents/360 hw 1 datas/foreign currency.xlsx')
food_price <- read_excel('C:/Users/OZAN/Documents/360 hw 1 datas/food prices.xlsx')
google_data <- read_excel('C:/Users/OZAN/Documents/360 hw 1 datas/google_data.xlsx')

money_supply$Date <- as.yearmon(money_supply$Date)
foreign_currency$Date <- as.yearmon(foreign_currency$Date)
food_price$Date <- as.yearmon(food_price$Date)
google_data$Date <- as.yearmon(google_data$Date)

head(money_supply,25)

## # A tibble: 25 x 2
##    Date      Money_Supply
##    <yearmon>        <dbl>
##  1 Oca 2019   1042886601.
##  2 ub 2019   1071369695.
##  3 Mar 2019   1188087118.
##  4 Nis 2019   1249180758.
##  5 May 2019   1270562517.
##  6 Haz 2019   1244901230.
##  7 Tem 2019   1243546974.
##  8 Au 2019   1274973384.
##  9 Eyl 2019   1272515753.
## 10 Eki 2019   1296086723.
## # ... with 15 more rows
…
